%YAML 1.1
%TAG !u! tag:unity3d.com,2011:
--- !u!114 &11400000
MonoBehaviour:
  m_ObjectHideFlags: 0
  m_CorrespondingSourceObject: {fileID: 0}
  m_PrefabInstance: {fileID: 0}
  m_PrefabAsset: {fileID: 0}
  m_GameObject: {fileID: 0}
  m_Enabled: 1
  m_EditorHideFlags: 0
  m_Script: {fileID: 11500000, guid: c0922567c81c9644a88c48e4c5c39990, type: 3}
  m_Name: stateBtn1-1
  m_EditorClassIdentifier: 
  storyText: '----'
  textVibor: "\u041A\u043E\u043F\u0430\u044F\u0441\u044C \u0443 \u0441\u0435\u0431\u044F
    \u0432 \u0433\u043E\u043B\u043E\u0432\u0435, \u0432\u044B \u043F\u043E\u043D\u0438\u043C\u0430\u0435\u0442\u0435,
    \u0447\u0442\u043E \u0441\u043C\u044B\u0441\u043B\u0430 \u043D\u0435\u0442."
  btn1: "\u041F\u0440\u043E\u0434\u043E\u043B\u0436\u0438\u0442\u044C \u0441\u0430\u043C\u043E\u043A\u043E\u043F\u0430\u043D\u0438\u0435"
  btn2: "\u0425\u0432\u0430\u0442\u0438\u0442,\u043F\u043E\u0440\u0430 \u0443\u0441\u043F\u043E\u043A\u043E\u0438\u0442\u044C\u0441\u044F"
  btn3: '---'
  btn4: '---'
  imageMain: {fileID: 21300000, guid: c8c87527f00158143a25accadc68d80e, type: 3}
  state1: {fileID: 11400000, guid: 2735e5e07c2215a498fcf76ed63b327c, type: 2}
  state2: {fileID: 11400000, guid: 977b68daad41a1949b9624857ac867e9, type: 2}
  state3: {fileID: 0}
  state4: {fileID: 0}
  win: 0
  ofBtn: 2
